id_corregimiento,nombre_corregimiento,numero_solicitudes
0,SAN JUAN DE PASTO,
1,CATAMBUCO,2840.0
3,EL ENCANO,410.0
4,GENOY,680.0
5,LA LAGUNA,1212.0
7,OBONUCO,4722.0
8,SANTA BARBARA,1466.0
9,JONGOVITO,7951.0
10,GUALMATAN,12.0
12,MAPACHICO,2803.0
13,EL SOCORRO,302.0
16,MOTILON,1.0
19,CEROTAL,
21,LA VICTORIA,1358.0
24,SAN JOSE,
25,EL PUERTO,1.0
27,CABRERA,792.0
29,DOLORES,537.0
30,BUESAQUILLO,8622.0
33,CUJACAL,824.0
36,TESCUAL,60.0
39,ANGANOY,4000.0
42,DAZA,678.0
51,CUBIJAN BAJO,
52,SAN FERNANDO,298.0
53,MOCONDINO,280.0
55,CANCHALA,6159.0
56,LOS ANGELES,848.0
58,EL ROSARIO,4100.0
59,JAMONDINO,451.0
63,BOTANILLA,78.0
64,CHARGUAYACO,
65,CRUZ DE AMARILLO,
66,EL CAMPANERO,
68,JURADO,76.0
71,LA MERCED,1593.0
72,LAS ENCINAS,
73,MAPACHICO ALTO,
74,MAPACHICO SAN JOSE,
76,SAN FRANCISCO,
78,SAN JUAN DE ANGANOY,246.0
79,SANTA LUCIA,
80,VILLA MARIA,7.0
86,GUALMATAN ALTO,
87,LA CALDERA,16.0
89,PUERRES,346.0
