{
"type": "FeatureCollection",
"name": "nodes_estaciones",
"crs": { "type": "name", "properties": { "name": "urn:ogc:def:crs:OGC:1.3:CRS84" } },
"features": [
{ "type": "Feature", "properties": { "id": 7.0, "ntrnombre": "PERDOMO", "is_intermu": 0, "is_urbano": 0, "ORIG_FID": 0 }, "geometry": { "type": "Point", "coordinates": [ -74.1649835983727, 4.595779993741536 ] } },
{ "type": "Feature", "properties": { "id": 6.0, "ntrnombre": "PEPE SIERRA", "is_intermu": 0, "is_urbano": 0, "ORIG_FID": 1 }, "geometry": { "type": "Point", "coordinates": [ -74.055321180310443, 4.698027943244012 ] } },
{ "type": "Feature", "properties": { "id": 4.0, "ntrnombre": "QUIROGA", "is_intermu": 0, "is_urbano": 0, "ORIG_FID": 2 }, "geometry": { "type": "Point", "coordinates": [ -74.114371024530698, 4.576805628499526 ] } },
{ "type": "Feature", "properties": { "id": 104.0, "ntrnombre": "LA DESPENSA", "is_intermu": 0, "is_urbano": 0, "ORIG_FID": 3 }, "geometry": { "type": "Point", "coordinates": [ -74.188193980663925, 4.594587722601231 ] } },
{ "type": "Feature", "properties": { "id": 3.0, "ntrnombre": "QUIRIGUA", "is_intermu": 0, "is_urbano": 0, "ORIG_FID": 4 }, "geometry": { "type": "Point", "coordinates": [ -74.108629222792601, 4.706721602997746 ] } },
{ "type": "Feature", "properties": { "id": 17.0, "ntrnombre": "BOYACA", "is_intermu": 0, "is_urbano": 0, "ORIG_FID": 5 }, "geometry": { "type": "Point", "coordinates": [ -74.087263980718134, 4.694087664612774 ] } },
{ "type": "Feature", "properties": { "id": 2.0, "ntrnombre": "PUENTELARGO", "is_intermu": 0, "is_urbano": 0, "ORIG_FID": 6 }, "geometry": { "type": "Point", "coordinates": [ -74.067208238468154, 4.693389445177944 ] } },
{ "type": "Feature", "properties": { "id": 105.0, "ntrnombre": "LEON XIII", "is_intermu": 0, "is_urbano": 0, "ORIG_FID": 7 }, "geometry": { "type": "Point", "coordinates": [ -74.193123619097463, 4.592202191025708 ] } },
{ "type": "Feature", "properties": { "id": 12.0, "ntrnombre": "AV AMERICAS - AV BOYACA", "is_intermu": 0, "is_urbano": 0, "ORIG_FID": 8 }, "geometry": { "type": "Point", "coordinates": [ -74.134213629388569, 4.630107422197025 ] } },
{ "type": "Feature", "properties": { "id": 9.0, "ntrnombre": "PRADO", "is_intermu": 0, "is_urbano": 0, "ORIG_FID": 9 }, "geometry": { "type": "Point", "coordinates": [ -74.052583231900897, 4.714540023542346 ] } },
{ "type": "Feature", "properties": { "id": 10.0, "ntrnombre": "PUENTE ARANDA", "is_intermu": 0, "is_urbano": 0, "ORIG_FID": 10 }, "geometry": { "type": "Point", "coordinates": [ -74.104760944357466, 4.625762523124586 ] } },
{ "type": "Feature", "properties": { "id": 308.0, "ntrnombre": "K7 - CL45", "is_intermu": 0, "is_urbano": 0, "ORIG_FID": 11 }, "geometry": { "type": "Point", "coordinates": [ -74.064018925955779, 4.632090651239452 ] } },
{ "type": "Feature", "properties": { "id": 309.0, "ntrnombre": "K7 - CL50", "is_intermu": 0, "is_urbano": 0, "ORIG_FID": 12 }, "geometry": { "type": "Point", "coordinates": [ -74.063508368746085, 4.636960232677251 ] } },
{ "type": "Feature", "properties": { "id": 8.0, "ntrnombre": "POLO", "is_intermu": 0, "is_urbano": 0, "ORIG_FID": 13 }, "geometry": { "type": "Point", "coordinates": [ -74.064912118966149, 4.670877011053896 ] } },
{ "type": "Feature", "properties": { "id": 11.0, "ntrnombre": "SUBA CALLE 100", "is_intermu": 0, "is_urbano": 0, "ORIG_FID": 14 }, "geometry": { "type": "Point", "coordinates": [ -74.065674290685394, 4.690526621664827 ] } },
{ "type": "Feature", "properties": { "id": 14.0, "ntrnombre": "RIONEGRO", "is_intermu": 0, "is_urbano": 0, "ORIG_FID": 15 }, "geometry": { "type": "Point", "coordinates": [ -74.064761500718831, 4.680425667339149 ] } },
{ "type": "Feature", "properties": { "id": 23.0, "ntrnombre": "ALQUERIA", "is_intermu": 0, "is_urbano": 0, "ORIG_FID": 16 }, "geometry": { "type": "Point", "coordinates": [ -74.134257793297181, 4.594263264118345 ] } },
{ "type": "Feature", "properties": { "id": 122.0, "ntrnombre": "TERMINAL DE TRANSPORTES DEL SUR", "is_intermu": 0, "is_urbano": 0, "ORIG_FID": 17 }, "geometry": { "type": "Point", "coordinates": [ -74.176516158955067, 4.597660893265379 ] } },
{ "type": "Feature", "properties": { "id": 18.0, "ntrnombre": "CAD", "is_intermu": 0, "is_urbano": 0, "ORIG_FID": 18 }, "geometry": { "type": "Point", "coordinates": [ -74.084212638122338, 4.623374422306281 ] } },
{ "type": "Feature", "properties": { "id": 39.0, "ntrnombre": "CARRERA 90", "is_intermu": 0, "is_urbano": 0, "ORIG_FID": 19 }, "geometry": { "type": "Point", "coordinates": [ -74.104629621467396, 4.704710001138485 ] } },
{ "type": "Feature", "properties": { "id": 20.0, "ntrnombre": "CALLE 127", "is_intermu": 0, "is_urbano": 0, "ORIG_FID": 20 }, "geometry": { "type": "Point", "coordinates": [ -74.054254233580778, 4.704551554965083 ] } },
{ "type": "Feature", "properties": { "id": 19.0, "ntrnombre": "CALLE 100", "is_intermu": 0, "is_urbano": 0, "ORIG_FID": 21 }, "geometry": { "type": "Point", "coordinates": [ -74.057802360013753, 4.683365415973629 ] } },
{ "type": "Feature", "properties": { "id": 24.0, "ntrnombre": "CALLE 106", "is_intermu": 0, "is_urbano": 0, "ORIG_FID": 22 }, "geometry": { "type": "Point", "coordinates": [ -74.0561263220943, 4.693061430942044 ] } },
{ "type": "Feature", "properties": { "id": 25.0, "ntrnombre": "CALLE 76", "is_intermu": 0, "is_urbano": 0, "ORIG_FID": 23 }, "geometry": { "type": "Point", "coordinates": [ -74.06125313845105, 4.663027055661829 ] } },
{ "type": "Feature", "properties": { "id": 71.0, "ntrnombre": "GRATAMIRA", "is_intermu": 0, "is_urbano": 0, "ORIG_FID": 24 }, "geometry": { "type": "Point", "coordinates": [ -74.074728058947912, 4.727508141179787 ] } },
{ "type": "Feature", "properties": { "id": 310.0, "ntrnombre": "K7 - CL51", "is_intermu": 0, "is_urbano": 0, "ORIG_FID": 25 }, "geometry": { "type": "Point", "coordinates": [ -74.063313784886446, 4.637886672638127 ] } },
{ "type": "Feature", "properties": { "id": 311.0, "ntrnombre": "K7 - CL55", "is_intermu": 0, "is_urbano": 0, "ORIG_FID": 26 }, "geometry": { "type": "Point", "coordinates": [ -74.062273504635812, 4.641802334341407 ] } },
{ "type": "Feature", "properties": { "id": 304.0, "ntrnombre": "K7 - CL35", "is_intermu": 0, "is_urbano": 0, "ORIG_FID": 27 }, "geometry": { "type": "Point", "coordinates": [ -74.066759726105801, 4.622167696890549 ] } },
{ "type": "Feature", "properties": { "id": 70.0, "ntrnombre": "NQS CALLE 75", "is_intermu": 0, "is_urbano": 0, "ORIG_FID": 28 }, "geometry": { "type": "Point", "coordinates": [ -74.071324418524895, 4.670122610173967 ] } },
{ "type": "Feature", "properties": { "id": 13.0, "ntrnombre": "RICAURTE", "is_intermu": 0, "is_urbano": 0, "ORIG_FID": 29 }, "geometry": { "type": "Point", "coordinates": [ -74.093938675806086, 4.611596795973056 ] } },
{ "type": "Feature", "properties": { "id": 27.0, "ntrnombre": "RESTREPO", "is_intermu": 0, "is_urbano": 0, "ORIG_FID": 30 }, "geometry": { "type": "Point", "coordinates": [ -74.101492214388855, 4.581800820977058 ] } },
{ "type": "Feature", "properties": { "id": 15.0, "ntrnombre": "SAN MARTIN", "is_intermu": 0, "is_urbano": 0, "ORIG_FID": 31 }, "geometry": { "type": "Point", "coordinates": [ -74.067129134450582, 4.676460779749804 ] } },
{ "type": "Feature", "properties": { "id": 62.0, "ntrnombre": "SUBA  TV  91", "is_intermu": 0, "is_urbano": 0, "ORIG_FID": 32 }, "geometry": { "type": "Point", "coordinates": [ -74.086961365470344, 4.738914030055483 ] } },
{ "type": "Feature", "properties": { "id": 32.0, "ntrnombre": "AVENIDA 68", "is_intermu": 0, "is_urbano": 0, "ORIG_FID": 33 }, "geometry": { "type": "Point", "coordinates": [ -74.080562001205891, 4.685825693498346 ] } },
{ "type": "Feature", "properties": { "id": 65.0, "ntrnombre": "SUBA CALLE 95", "is_intermu": 0, "is_urbano": 0, "ORIG_FID": 34 }, "geometry": { "type": "Point", "coordinates": [ -74.063210667629789, 4.684665570269276 ] } },
{ "type": "Feature", "properties": { "id": 305.0, "ntrnombre": "K7 - CL36", "is_intermu": 0, "is_urbano": 0, "ORIG_FID": 35 }, "geometry": { "type": "Point", "coordinates": [ -74.066154969240273, 4.624232152320136 ] } },
{ "type": "Feature", "properties": { "id": 33.0, "ntrnombre": "CARRERA 53", "is_intermu": 0, "is_urbano": 0, "ORIG_FID": 36 }, "geometry": { "type": "Point", "coordinates": [ -74.077432963117815, 4.68185875544638 ] } },
{ "type": "Feature", "properties": { "id": 306.0, "ntrnombre": "K7 - CL37", "is_intermu": 0, "is_urbano": 0, "ORIG_FID": 37 }, "geometry": { "type": "Point", "coordinates": [ -74.065990070258252, 4.62496537276515 ] } },
{ "type": "Feature", "properties": { "id": 307.0, "ntrnombre": "K7 - CL40", "is_intermu": 0, "is_urbano": 0, "ORIG_FID": 38 }, "geometry": { "type": "Point", "coordinates": [ -74.065209526235748, 4.62819244250695 ] } },
{ "type": "Feature", "properties": { "id": 46.0, "ntrnombre": "SANTA ISABEL", "is_intermu": 0, "is_urbano": 0, "ORIG_FID": 39 }, "geometry": { "type": "Point", "coordinates": [ -74.102805441770244, 4.601521068755025 ] } },
{ "type": "Feature", "properties": { "id": 48.0, "ntrnombre": "SENA", "is_intermu": 0, "is_urbano": 0, "ORIG_FID": 40 }, "geometry": { "type": "Point", "coordinates": [ -74.110758080877204, 4.597326223008088 ] } },
{ "type": "Feature", "properties": { "id": 49.0, "ntrnombre": "SEVILLANA", "is_intermu": 0, "is_urbano": 0, "ORIG_FID": 41 }, "geometry": { "type": "Point", "coordinates": [ -74.147443162755437, 4.595110451976016 ] } },
{ "type": "Feature", "properties": { "id": 43.0, "ntrnombre": "CDS CARRERA 32", "is_intermu": 0, "is_urbano": 0, "ORIG_FID": 42 }, "geometry": { "type": "Point", "coordinates": [ -74.09394506400227, 4.616113818733713 ] } },
{ "type": "Feature", "properties": { "id": 44.0, "ntrnombre": "COMUNEROS", "is_intermu": 0, "is_urbano": 0, "ORIG_FID": 43 }, "geometry": { "type": "Point", "coordinates": [ -74.099897687909134, 4.604204363633697 ] } },
{ "type": "Feature", "properties": { "id": 41.0, "ntrnombre": "POLICARPA", "is_intermu": 0, "is_urbano": 0, "ORIG_FID": 44 }, "geometry": { "type": "Point", "coordinates": [ -74.086970603226192, 4.586195705727871 ] } },
{ "type": "Feature", "properties": { "id": 42.0, "ntrnombre": "SAN BERNARDO", "is_intermu": 0, "is_urbano": 0, "ORIG_FID": 45 }, "geometry": { "type": "Point", "coordinates": [ -74.084375264681469, 4.590116482508728 ] } },
{ "type": "Feature", "properties": { "id": 52.0, "ntrnombre": "NQS CALLE 38A SUR", "is_intermu": 0, "is_urbano": 0, "ORIG_FID": 46 }, "geometry": { "type": "Point", "coordinates": [ -74.123780959114541, 4.593802113372051 ] } },
{ "type": "Feature", "properties": { "id": 56.0, "ntrnombre": "MINUTO DE DIOS", "is_intermu": 0, "is_urbano": 0, "ORIG_FID": 47 }, "geometry": { "type": "Point", "coordinates": [ -74.09137627545698, 4.696592274753723 ] } },
{ "type": "Feature", "properties": { "id": 57.0, "ntrnombre": "NIZA CALLE 127", "is_intermu": 0, "is_urbano": 0, "ORIG_FID": 48 }, "geometry": { "type": "Point", "coordinates": [ -74.072302584341813, 4.711977244598269 ] } },
{ "type": "Feature", "properties": { "id": 50.0, "ntrnombre": "SOCORRO", "is_intermu": 0, "is_urbano": 0, "ORIG_FID": 49 }, "geometry": { "type": "Point", "coordinates": [ -74.125585750594126, 4.564658741177399 ] } },
{ "type": "Feature", "properties": { "id": 54.0, "ntrnombre": "FUCHA", "is_intermu": 0, "is_urbano": 0, "ORIG_FID": 50 }, "geometry": { "type": "Point", "coordinates": [ -74.099502098438066, 4.582915211620149 ] } },
{ "type": "Feature", "properties": { "id": 312.0, "ntrnombre": "K7 - CL56", "is_intermu": 0, "is_urbano": 0, "ORIG_FID": 51 }, "geometry": { "type": "Point", "coordinates": [ -74.061996911917035, 4.642847014114026 ] } },
{ "type": "Feature", "properties": { "id": 313.0, "ntrnombre": "K7 - CL60", "is_intermu": 0, "is_urbano": 0, "ORIG_FID": 52 }, "geometry": { "type": "Point", "coordinates": [ -74.060642820620103, 4.646274597774581 ] } },
{ "type": "Feature", "properties": { "id": 314.0, "ntrnombre": "K7 - CL66", "is_intermu": 0, "is_urbano": 0, "ORIG_FID": 53 }, "geometry": { "type": "Point", "coordinates": [ -74.058430133696476, 4.650352486881872 ] } },
{ "type": "Feature", "properties": { "id": 315.0, "ntrnombre": "K7 - CL71", "is_intermu": 0, "is_urbano": 0, "ORIG_FID": 54 }, "geometry": { "type": "Point", "coordinates": [ -74.056106498995916, 4.653461842490221 ] } },
{ "type": "Feature", "properties": { "id": 316.0, "ntrnombre": "K7 - CL73", "is_intermu": 0, "is_urbano": 0, "ORIG_FID": 55 }, "geometry": { "type": "Point", "coordinates": [ -74.05441815536723, 4.65660608321864 ] } },
{ "type": "Feature", "properties": { "id": 68.0, "ntrnombre": "VIRREY", "is_intermu": 0, "is_urbano": 0, "ORIG_FID": 56 }, "geometry": { "type": "Point", "coordinates": [ -74.059090592212385, 4.675781451495098 ] } },
{ "type": "Feature", "properties": { "id": 59.0, "ntrnombre": "PALOQUEMADO", "is_intermu": 0, "is_urbano": 0, "ORIG_FID": 57 }, "geometry": { "type": "Point", "coordinates": [ -74.089654920299438, 4.616778773063331 ] } },
{ "type": "Feature", "properties": { "id": 96.0, "ntrnombre": "CIUDAD JARDIN", "is_intermu": 0, "is_urbano": 0, "ORIG_FID": 58 }, "geometry": { "type": "Point", "coordinates": [ -74.090412498917416, 4.581445492130565 ] } },
{ "type": "Feature", "properties": { "id": 61.0, "ntrnombre": "SIMON BOLIVAR", "is_intermu": 0, "is_urbano": 0, "ORIG_FID": 59 }, "geometry": { "type": "Point", "coordinates": [ -74.07767864915354, 4.657147767332762 ] } },
{ "type": "Feature", "properties": { "id": 60.0, "ntrnombre": "AV. SUBA CALLE 116", "is_intermu": 0, "is_urbano": 0, "ORIG_FID": 60 }, "geometry": { "type": "Point", "coordinates": [ -74.06984608881281, 4.699237473110952 ] } },
{ "type": "Feature", "properties": { "id": 58.0, "ntrnombre": "OLAYA", "is_intermu": 0, "is_urbano": 0, "ORIG_FID": 61 }, "geometry": { "type": "Point", "coordinates": [ -74.107502812505814, 4.578862352378558 ] } },
{ "type": "Feature", "properties": { "id": 64.0, "ntrnombre": "PRADERA", "is_intermu": 0, "is_urbano": 0, "ORIG_FID": 62 }, "geometry": { "type": "Point", "coordinates": [ -74.118645079376421, 4.628521092040898 ] } },
{ "type": "Feature", "properties": { "id": 67.0, "ntrnombre": "VENECIA", "is_intermu": 0, "is_urbano": 0, "ORIG_FID": 63 }, "geometry": { "type": "Point", "coordinates": [ -74.142791578970019, 4.595559468156158 ] } },
{ "type": "Feature", "properties": { "id": 69.0, "ntrnombre": "ZONA INDUSTRIAL", "is_intermu": 0, "is_urbano": 0, "ORIG_FID": 64 }, "geometry": { "type": "Point", "coordinates": [ -74.098722085732689, 4.62034282817261 ] } },
{ "type": "Feature", "properties": { "id": 72.0, "ntrnombre": "HOSPITAL", "is_intermu": 0, "is_urbano": 0, "ORIG_FID": 65 }, "geometry": { "type": "Point", "coordinates": [ -74.086309832677244, 4.594948460580422 ] } },
{ "type": "Feature", "properties": { "id": 73.0, "ntrnombre": "HUMEDAL CORDOBA", "is_intermu": 0, "is_urbano": 0, "ORIG_FID": 66 }, "geometry": { "type": "Point", "coordinates": [ -74.071172807828447, 4.706653339818174 ] } },
{ "type": "Feature", "properties": { "id": 323.0, "ntrnombre": "K7 - CL94", "is_intermu": 0, "is_urbano": 0, "ORIG_FID": 67 }, "geometry": { "type": "Point", "coordinates": [ -74.041228765169379, 4.674785831306034 ] } },
{ "type": "Feature", "properties": { "id": 324.0, "ntrnombre": "K7 - CL97A", "is_intermu": 0, "is_urbano": 0, "ORIG_FID": 68 }, "geometry": { "type": "Point", "coordinates": [ -74.039685463694966, 4.678081214115609 ] } },
{ "type": "Feature", "properties": { "id": 325.0, "ntrnombre": "K7 - CL97", "is_intermu": 0, "is_urbano": 0, "ORIG_FID": 69 }, "geometry": { "type": "Point", "coordinates": [ -74.037839426001923, 4.680493000558688 ] } },
{ "type": "Feature", "properties": { "id": 326.0, "ntrnombre": "K7 - CL106", "is_intermu": 0, "is_urbano": 0, "ORIG_FID": 70 }, "geometry": { "type": "Point", "coordinates": [ -74.036231592079886, 4.683920045318143 ] } },
{ "type": "Feature", "properties": { "id": 327.0, "ntrnombre": "K7 - CL110", "is_intermu": 0, "is_urbano": 0, "ORIG_FID": 71 }, "geometry": { "type": "Point", "coordinates": [ -74.03464709177527, 4.689340226085933 ] } },
{ "type": "Feature", "properties": { "id": 328.0, "ntrnombre": "K7 - CL116", "is_intermu": 0, "is_urbano": 0, "ORIG_FID": 72 }, "geometry": { "type": "Point", "coordinates": [ -74.033571164315006, 4.692589689558393 ] } },
{ "type": "Feature", "properties": { "id": 329.0, "ntrnombre": "K7 - CL118", "is_intermu": 0, "is_urbano": 0, "ORIG_FID": 73 }, "geometry": { "type": "Point", "coordinates": [ -74.032562389939855, 4.695030492860784 ] } },
{ "type": "Feature", "properties": { "id": 106.0, "ntrnombre": "SAN MATEO", "is_intermu": 0, "is_urbano": 0, "ORIG_FID": 74 }, "geometry": { "type": "Point", "coordinates": [ -74.206152517486814, 4.585636565535917 ] } },
{ "type": "Feature", "properties": { "id": 76.0, "ntrnombre": "DE LA SABANA", "is_intermu": 0, "is_urbano": 0, "ORIG_FID": 75 }, "geometry": { "type": "Point", "coordinates": [ -74.081885959050211, 4.605413509975532 ] } },
{ "type": "Feature", "properties": { "id": 86.0, "ntrnombre": "MADELENA", "is_intermu": 0, "is_urbano": 0, "ORIG_FID": 76 }, "geometry": { "type": "Point", "coordinates": [ -74.156991310633401, 4.59625059955706 ] } },
{ "type": "Feature", "properties": { "id": 330.0, "ntrnombre": "K7 - CL119", "is_intermu": 0, "is_urbano": 0, "ORIG_FID": 77 }, "geometry": { "type": "Point", "coordinates": [ -74.031588316502734, 4.696554026059371 ] } },
{ "type": "Feature", "properties": { "id": 83.0, "ntrnombre": "AV. EL DORADO", "is_intermu": 0, "is_urbano": 0, "ORIG_FID": 78 }, "geometry": { "type": "Point", "coordinates": [ -74.079906530645189, 4.630513151020782 ] } },
{ "type": "Feature", "properties": { "id": 84.0, "ntrnombre": "FERIAS", "is_intermu": 0, "is_urbano": 0, "ORIG_FID": 79 }, "geometry": { "type": "Point", "coordinates": [ -74.084610648593355, 4.690936996097485 ] } },
{ "type": "Feature", "properties": { "id": 34.0, "ntrnombre": "RECINTO FERIAL", "is_intermu": 0, "is_urbano": 0, "ORIG_FID": 80 }, "geometry": { "type": "Point", "coordinates": [ -74.089806670253267, 4.634351882334975 ] } },
{ "type": "Feature", "properties": { "id": 322.0, "ntrnombre": "K7 - CL124", "is_intermu": 0, "is_urbano": 0, "ORIG_FID": 81 }, "geometry": { "type": "Point", "coordinates": [ -74.02869358915504, 4.700569664800506 ] } },
{ "type": "Feature", "properties": { "id": 331.0, "ntrnombre": "K7 - CL127B", "is_intermu": 0, "is_urbano": 0, "ORIG_FID": 82 }, "geometry": { "type": "Point", "coordinates": [ -74.028558148352502, 4.705745183169576 ] } },
{ "type": "Feature", "properties": { "id": 332.0, "ntrnombre": "K7 - CL130", "is_intermu": 0, "is_urbano": 0, "ORIG_FID": 83 }, "geometry": { "type": "Point", "coordinates": [ -74.028636465051591, 4.709254972982662 ] } },
{ "type": "Feature", "properties": { "id": 333.0, "ntrnombre": "K7 - CL132", "is_intermu": 0, "is_urbano": 0, "ORIG_FID": 84 }, "geometry": { "type": "Point", "coordinates": [ -74.029045233177854, 4.711231022414095 ] } },
{ "type": "Feature", "properties": { "id": 82.0, "ntrnombre": "AV JIMENEZ", "is_intermu": 0, "is_urbano": 0, "ORIG_FID": 85 }, "geometry": { "type": "Point", "coordinates": [ -74.079027919111667, 4.602989325262839 ] } },
{ "type": "Feature", "properties": { "id": 87.0, "ntrnombre": "SAN FACON CARRERA 22", "is_intermu": 0, "is_urbano": 0, "ORIG_FID": 86 }, "geometry": { "type": "Point", "coordinates": [ -74.086667129879316, 4.609635933202305 ] } },
{ "type": "Feature", "properties": { "id": 90.0, "ntrnombre": "CAMPIN", "is_intermu": 0, "is_urbano": 0, "ORIG_FID": 87 }, "geometry": { "type": "Point", "coordinates": [ -74.07871241261364, 4.645316743253282 ] } },
{ "type": "Feature", "properties": { "id": 35.0, "ntrnombre": "CIUDAD UNIVERSITARIA", "is_intermu": 0, "is_urbano": 0, "ORIG_FID": 88 }, "geometry": { "type": "Point", "coordinates": [ -74.083563651308665, 4.630918380693552 ] } },
{ "type": "Feature", "properties": { "id": 92.0, "ntrnombre": "CARRERA 43", "is_intermu": 0, "is_urbano": 0, "ORIG_FID": 89 }, "geometry": { "type": "Point", "coordinates": [ -74.101449968254116, 4.622787487802085 ] } },
{ "type": "Feature", "properties": { "id": 88.0, "ntrnombre": "CALLE 72", "is_intermu": 0, "is_urbano": 0, "ORIG_FID": 90 }, "geometry": { "type": "Point", "coordinates": [ -74.062089745714147, 4.658170903012336 ] } },
{ "type": "Feature", "properties": { "id": 36.0, "ntrnombre": "CONCEJO DE BOGOTA", "is_intermu": 0, "is_urbano": 0, "ORIG_FID": 91 }, "geometry": { "type": "Point", "coordinates": [ -74.0803118235998, 4.62601122252654 ] } },
{ "type": "Feature", "properties": { "id": 93.0, "ntrnombre": "AVENIDA 1 DE MAYO", "is_intermu": 0, "is_urbano": 0, "ORIG_FID": 92 }, "geometry": { "type": "Point", "coordinates": [ -74.093738813243021, 4.576894506815565 ] } },
{ "type": "Feature", "properties": { "id": 94.0, "ntrnombre": "SAN DIEGO", "is_intermu": 0, "is_urbano": 0, "ORIG_FID": 93 }, "geometry": { "type": "Point", "coordinates": [ -74.071503010645429, 4.610889358102279 ] } },
{ "type": "Feature", "properties": { "id": 101.0, "ntrnombre": "NQS CALLE 30 SUR", "is_intermu": 0, "is_urbano": 0, "ORIG_FID": 94 }, "geometry": { "type": "Point", "coordinates": [ -74.118053856665725, 4.594762415832188 ] } },
{ "type": "Feature", "properties": { "id": 37.0, "ntrnombre": "CENTRO MEMORIA", "is_intermu": 0, "is_urbano": 0, "ORIG_FID": 95 }, "geometry": { "type": "Point", "coordinates": [ -74.076353646261168, 4.620512325925051 ] } },
{ "type": "Feature", "properties": { "id": 334.0, "ntrnombre": "CL187 - 54D", "is_intermu": 0, "is_urbano": 0, "ORIG_FID": 96 }, "geometry": { "type": "Point", "coordinates": [ -74.046622006079133, 4.765479906851779 ] } },
{ "type": "Feature", "properties": { "id": 38.0, "ntrnombre": "UNIVERSIDADES", "is_intermu": 0, "is_urbano": 0, "ORIG_FID": 97 }, "geometry": { "type": "Point", "coordinates": [ -74.067392273654235, 4.604473788086669 ] } },
{ "type": "Feature", "properties": { "id": 97.0, "ntrnombre": "MODELIA", "is_intermu": 0, "is_urbano": 0, "ORIG_FID": 98 }, "geometry": { "type": "Point", "coordinates": [ -74.117179015077781, 4.675124843953994 ] } },
{ "type": "Feature", "properties": { "id": 102.0, "ntrnombre": "TERREROS", "is_intermu": 0, "is_urbano": 0, "ORIG_FID": 99 }, "geometry": { "type": "Point", "coordinates": [ -74.198915439762928, 4.589301965621588 ] } },
{ "type": "Feature", "properties": { "id": 110.0, "ntrnombre": "LA CAMPIÑA", "is_intermu": 0, "is_urbano": 0, "ORIG_FID": 100 }, "geometry": { "type": "Point", "coordinates": [ -74.091041057707997, 4.742520133733975 ] } },
{ "type": "Feature", "properties": { "id": 107.0, "ntrnombre": "MOVISTAR ARENA", "is_intermu": 0, "is_urbano": 0, "ORIG_FID": 101 }, "geometry": { "type": "Point", "coordinates": [ -74.078371427651859, 4.649879973709452 ] } },
{ "type": "Feature", "properties": { "id": 109.0, "ntrnombre": "UNIVERSIDAD NACIONAL", "is_intermu": 0, "is_urbano": 0, "ORIG_FID": 102 }, "geometry": { "type": "Point", "coordinates": [ -74.079342733031098, 4.63696654767224 ] } },
{ "type": "Feature", "properties": { "id": 108.0, "ntrnombre": "ESCUELA MILITAR", "is_intermu": 0, "is_urbano": 0, "ORIG_FID": 103 }, "geometry": { "type": "Point", "coordinates": [ -74.069943085160162, 4.675582846131755 ] } },
{ "type": "Feature", "properties": { "id": 335.0, "ntrnombre": "CL187 - 55A", "is_intermu": 0, "is_urbano": 0, "ORIG_FID": 104 }, "geometry": { "type": "Point", "coordinates": [ -74.049040402984772, 4.766337485024145 ] } },
{ "type": "Feature", "properties": { "id": 317.0, "ntrnombre": "K7 - CL78", "is_intermu": 0, "is_urbano": 0, "ORIG_FID": 105 }, "geometry": { "type": "Point", "coordinates": [ -74.051286413938072, 4.660376245096094 ] } },
{ "type": "Feature", "properties": { "id": 113.0, "ntrnombre": "SAN VICTORINO", "is_intermu": 0, "is_urbano": 0, "ORIG_FID": 106 }, "geometry": { "type": "Point", "coordinates": [ -74.077474225659643, 4.600914425735004 ] } },
{ "type": "Feature", "properties": { "id": 318.0, "ntrnombre": "K7 - CL81", "is_intermu": 0, "is_urbano": 0, "ORIG_FID": 107 }, "geometry": { "type": "Point", "coordinates": [ -74.048912222781851, 4.662847721132219 ] } },
{ "type": "Feature", "properties": { "id": 319.0, "ntrnombre": "K7 - CL87", "is_intermu": 0, "is_urbano": 0, "ORIG_FID": 108 }, "geometry": { "type": "Point", "coordinates": [ -74.046256699848399, 4.666291112923332 ] } },
{ "type": "Feature", "properties": { "id": 320.0, "ntrnombre": "K7 - CL90", "is_intermu": 0, "is_urbano": 0, "ORIG_FID": 109 }, "geometry": { "type": "Point", "coordinates": [ -74.044899708721843, 4.669157369077698 ] } },
{ "type": "Feature", "properties": { "id": 321.0, "ntrnombre": "K7 - CL92", "is_intermu": 0, "is_urbano": 0, "ORIG_FID": 110 }, "geometry": { "type": "Point", "coordinates": [ -74.044117254889599, 4.670737072684761 ] } },
{ "type": "Feature", "properties": { "id": 22.0, "ntrnombre": "21 ANGELES", "is_intermu": 0, "is_urbano": 0, "ORIG_FID": 111 }, "geometry": { "type": "Point", "coordinates": [ -74.080966850523396, 4.735495653533762 ] } },
{ "type": "Feature", "properties": { "id": 116.0, "ntrnombre": "QUINTA PAREDES", "is_intermu": 0, "is_urbano": 0, "ORIG_FID": 112 }, "geometry": { "type": "Point", "coordinates": [ -74.093159993476363, 4.637597562087645 ] } },
{ "type": "Feature", "properties": { "id": 115.0, "ntrnombre": "GOBERNACION", "is_intermu": 0, "is_urbano": 0, "ORIG_FID": 113 }, "geometry": { "type": "Point", "coordinates": [ -74.096579377017321, 4.642929149822468 ] } },
{ "type": "Feature", "properties": { "id": 120.0, "ntrnombre": "CODABAS CENTRAL DE ABASTOS DEL NORTE", "is_intermu": 0, "is_urbano": 0, "ORIG_FID": 114 }, "geometry": { "type": "Point", "coordinates": [ -74.02633577620972, 4.756995655228941 ] } },
{ "type": "Feature", "properties": { "id": 111.0, "ntrnombre": "AVENIDA CALI", "is_intermu": 0, "is_urbano": 0, "ORIG_FID": 115 }, "geometry": { "type": "Point", "coordinates": [ -74.100416976253854, 4.702577777492614 ] } },
{ "type": "Feature", "properties": { "id": 124.0, "ntrnombre": "AEROPUERTO GUAYMARAL", "is_intermu": 0, "is_urbano": 0, "ORIG_FID": 116 }, "geometry": { "type": "Point", "coordinates": [ -74.064955088205011, 4.813785505758775 ] } },
{ "type": "Feature", "properties": { "id": 341.0, "ntrnombre": "CL76 - AK13", "is_intermu": 0, "is_urbano": 0, "ORIG_FID": 117 }, "geometry": { "type": "Point", "coordinates": [ -74.057465947435773, 4.661807292130993 ] } },
{ "type": "Feature", "properties": { "id": 342.0, "ntrnombre": "CL76 - AK 11", "is_intermu": 0, "is_urbano": 0, "ORIG_FID": 118 }, "geometry": { "type": "Point", "coordinates": [ -74.055195976726736, 4.660327510089773 ] } },
{ "type": "Feature", "properties": { "id": 98.0, "ntrnombre": "NORMANDIA", "is_intermu": 0, "is_urbano": 0, "ORIG_FID": 119 }, "geometry": { "type": "Point", "coordinates": [ -74.113255262160322, 4.668997825340182 ] } },
{ "type": "Feature", "properties": { "id": 99.0, "ntrnombre": "EL TIEMPO - MALOKA", "is_intermu": 0, "is_urbano": 0, "ORIG_FID": 120 }, "geometry": { "type": "Point", "coordinates": [ -74.10569463690203, 4.657170646266175 ] } },
{ "type": "Feature", "properties": { "id": 100.0, "ntrnombre": "SALITRE - EL GRECO", "is_intermu": 0, "is_urbano": 0, "ORIG_FID": 121 }, "geometry": { "type": "Point", "coordinates": [ -74.101700997717614, 4.650945458413084 ] } },
{ "type": "Feature", "properties": { "id": 114.0, "ntrnombre": "CAN", "is_intermu": 0, "is_urbano": 0, "ORIG_FID": 122 }, "geometry": { "type": "Point", "coordinates": [ -74.099106517540378, 4.646962955357028 ] } },
{ "type": "Feature", "properties": { "id": 344.0, "ntrnombre": "AK20B - CL74", "is_intermu": 0, "is_urbano": 0, "ORIG_FID": 123 }, "geometry": { "type": "Point", "coordinates": [ -74.062675173846571, 4.663004864391334 ] } },
{ "type": "Feature", "properties": { "id": 345.0, "ntrnombre": "CL72 - AK19", "is_intermu": 0, "is_urbano": 0, "ORIG_FID": 124 }, "geometry": { "type": "Point", "coordinates": [ -74.063514001968656, 4.660549430745046 ] } },
{ "type": "Feature", "properties": { "id": 346.0, "ntrnombre": "CL72 - AK11", "is_intermu": 0, "is_urbano": 0, "ORIG_FID": 125 }, "geometry": { "type": "Point", "coordinates": [ -74.05936765744714, 4.657605769060869 ] } },
{ "type": "Feature", "properties": { "id": 347.0, "ntrnombre": "CL72 - AK9", "is_intermu": 0, "is_urbano": 0, "ORIG_FID": 126 }, "geometry": { "type": "Point", "coordinates": [ -74.057828168365631, 4.656566344679351 ] } },
{ "type": "Feature", "properties": { "id": 142.0, "ntrnombre": "ESTACION BOSA", "is_intermu": 0, "is_urbano": 0, "ORIG_FID": 127 }, "geometry": { "type": "Point", "coordinates": [ -74.181295380178611, 4.596908294987441 ] } },
{ "type": "Feature", "properties": { "id": 121.0, "ntrnombre": "TERMINAL DE TRANSPORTES DE BOGOTA", "is_intermu": 0, "is_urbano": 0, "ORIG_FID": 128 }, "geometry": { "type": "Point", "coordinates": [ -74.115566922632325, 4.653442133525247 ] } },
{ "type": "Feature", "properties": { "id": 123.0, "ntrnombre": "AEROPUERTO EL DORADO", "is_intermu": 0, "is_urbano": 0, "ORIG_FID": 129 }, "geometry": { "type": "Point", "coordinates": [ -74.137630026179863, 4.694619322308619 ] } },
{ "type": "Feature", "properties": { "id": 348.0, "ntrnombre": "Cabecera puente guaduas", "is_intermu": 0, "is_urbano": 0, "ORIG_FID": 130 }, "geometry": { "type": "Point", "coordinates": [ -74.125281273641917, 4.727021543116471 ] } },
{ "type": "Feature", "properties": { "id": 349.0, "ntrnombre": "ETB_Tibabuyes", "is_intermu": 0, "is_urbano": 0, "ORIG_FID": 131 }, "geometry": { "type": "Point", "coordinates": [ -74.103862298293009, 4.750720231238361 ] } },
{ "type": "Feature", "properties": { "id": 45.0, "ntrnombre": "CONSUELO", "is_intermu": 0, "is_urbano": 0, "ORIG_FID": 132 }, "geometry": { "type": "Point", "coordinates": [ -74.123823166361817, 4.56011589241624 ] } },
{ "type": "Feature", "properties": { "id": 127.0, "ntrnombre": "HORTUA", "is_intermu": 0, "is_urbano": 0, "ORIG_FID": 133 }, "geometry": { "type": "Point", "coordinates": [ -74.090324417978493, 4.590742068945951 ] } },
{ "type": "Feature", "properties": { "id": 303.0, "ntrnombre": "K7 - CL34", "is_intermu": 0, "is_urbano": 0, "ORIG_FID": 134 }, "geometry": { "type": "Point", "coordinates": [ -74.067474931815752, 4.620490931615073 ] } },
{ "type": "Feature", "properties": { "id": 125.0, "ntrnombre": "BICENTENARIO", "is_intermu": 0, "is_urbano": 0, "ORIG_FID": 135 }, "geometry": { "type": "Point", "coordinates": [ -74.08220157184779, 4.593488939648847 ] } },
{ "type": "Feature", "properties": { "id": 350.0, "ntrnombre": "PATIO NORTE\n", "is_intermu": 0, "is_urbano": 0, "ORIG_FID": 136 }, "geometry": { "type": "Point", "coordinates": [ -74.050309618348109, 4.761130003508927 ] } },
{ "type": "Feature", "properties": { "id": 351.0, "ntrnombre": "PATIO SUBA", "is_intermu": 0, "is_urbano": 0, "ORIG_FID": 137 }, "geometry": { "type": "Point", "coordinates": [ -74.093040756823456, 4.746936650472148 ] } },
{ "type": "Feature", "properties": { "id": 352.0, "ntrnombre": "PATIO 80", "is_intermu": 0, "is_urbano": 0, "ORIG_FID": 138 }, "geometry": { "type": "Point", "coordinates": [ -74.111103042533287, 4.706940646838102 ] } },
{ "type": "Feature", "properties": { "id": 353.0, "ntrnombre": "PATIO ELDORADO", "is_intermu": 0, "is_urbano": 0, "ORIG_FID": 139 }, "geometry": { "type": "Point", "coordinates": [ -74.124102720478334, 4.675285688803726 ] } },
{ "type": "Feature", "properties": { "id": 354.0, "ntrnombre": "PATIO AMERICAS", "is_intermu": 0, "is_urbano": 0, "ORIG_FID": 140 }, "geometry": { "type": "Point", "coordinates": [ -74.174459708758462, 4.632094699175213 ] } },
{ "type": "Feature", "properties": { "id": 355.0, "ntrnombre": "PATIO SUR", "is_intermu": 0, "is_urbano": 0, "ORIG_FID": 141 }, "geometry": { "type": "Point", "coordinates": [ -74.169110426212441, 4.598605685833981 ] } },
{ "type": "Feature", "properties": { "id": 356.0, "ntrnombre": "PATIO TUNAL", "is_intermu": 0, "is_urbano": 0, "ORIG_FID": 142 }, "geometry": { "type": "Point", "coordinates": [ -74.140321288346868, 4.571274474430457 ] } },
{ "type": "Feature", "properties": { "id": 357.0, "ntrnombre": "PATIO USME", "is_intermu": 0, "is_urbano": 0, "ORIG_FID": 143 }, "geometry": { "type": "Point", "coordinates": [ -74.120107286027647, 4.530581692653985 ] } },
{ "type": "Feature", "properties": { "id": 358.0, "ntrnombre": "PATIO 20 DE JULIO", "is_intermu": 0, "is_urbano": 0, "ORIG_FID": 144 }, "geometry": { "type": "Point", "coordinates": [ -74.096303282900521, 4.564515816384642 ] } },
{ "type": "Feature", "properties": { "id": 359.0, "ntrnombre": "PATIO DE LA HOJA", "is_intermu": 0, "is_urbano": 0, "ORIG_FID": 145 }, "geometry": { "type": "Point", "coordinates": [ -74.087799501757246, 4.620130804346894 ] } },
{ "type": "Feature", "properties": { "id": 103.0, "ntrnombre": "CALLE 187", "is_intermu": 0, "is_urbano": 0, "ORIG_FID": 146 }, "geometry": { "type": "Point", "coordinates": [ -74.044456216780461, 4.76323909529822 ] } },
{ "type": "Feature", "properties": { "id": 16.0, "ntrnombre": "BIBLIOTECA TINTAL", "is_intermu": 0, "is_urbano": 0, "ORIG_FID": 147 }, "geometry": { "type": "Point", "coordinates": [ -74.159392940145068, 4.637858294236526 ] } },
{ "type": "Feature", "properties": { "id": 1.0, "ntrnombre": "CALLE 34", "is_intermu": 0, "is_urbano": 0, "ORIG_FID": 148 }, "geometry": { "type": "Point", "coordinates": [ -74.06979623100743, 4.621463993502912 ] } },
{ "type": "Feature", "properties": { "id": 91.0, "ntrnombre": "CARRERA 47", "is_intermu": 0, "is_urbano": 0, "ORIG_FID": 149 }, "geometry": { "type": "Point", "coordinates": [ -74.073640990387929, 4.678010575157273 ] } },
{ "type": "Feature", "properties": { "id": 112.0, "ntrnombre": "NARIÑO", "is_intermu": 0, "is_urbano": 0, "ORIG_FID": 150 }, "geometry": { "type": "Point", "coordinates": [ -74.093907012125783, 4.586313743125342 ] } },
{ "type": "Feature", "properties": { "id": 360.0, "ntrnombre": "PATIO CL 6", "is_intermu": 0, "is_urbano": 0, "ORIG_FID": 151 }, "geometry": { "type": "Point", "coordinates": [ -74.087345025960119, 4.59827176781469 ] } },
{ "type": "Feature", "properties": { "id": 361.0, "ntrnombre": "RETORNO ALCALA", "is_intermu": 0, "is_urbano": 0, "ORIG_FID": 152 }, "geometry": { "type": "Point", "coordinates": [ -74.051086259117156, 4.723282517406378 ] } },
{ "type": "Feature", "properties": { "id": 135.0, "ntrnombre": "CALLE 57", "is_intermu": 0, "is_urbano": 0, "ORIG_FID": 153 }, "geometry": { "type": "Point", "coordinates": [ -74.065827316358806, 4.642979481419087 ] } },
{ "type": "Feature", "properties": { "id": 336.0, "ntrnombre": "CL188 - 57", "is_intermu": 0, "is_urbano": 0, "ORIG_FID": 154 }, "geometry": { "type": "Point", "coordinates": [ -74.050229652397007, 4.76817070569448 ] } },
{ "type": "Feature", "properties": { "id": 337.0, "ntrnombre": "CL185 - 54D", "is_intermu": 0, "is_urbano": 0, "ORIG_FID": 155 }, "geometry": { "type": "Point", "coordinates": [ -74.049525677818366, 4.764823020604512 ] } },
{ "type": "Feature", "properties": { "id": 338.0, "ntrnombre": "CL183 - 54D", "is_intermu": 0, "is_urbano": 0, "ORIG_FID": 156 }, "geometry": { "type": "Point", "coordinates": [ -74.049445788284373, 4.762638417982175 ] } },
{ "type": "Feature", "properties": { "id": 339.0, "ntrnombre": "CL183 - 50B", "is_intermu": 0, "is_urbano": 0, "ORIG_FID": 157 }, "geometry": { "type": "Point", "coordinates": [ -74.047227687534203, 4.760981766485094 ] } },
{ "type": "Feature", "properties": { "id": 362.0, "ntrnombre": "RETORNO SIMON BOLIVAR", "is_intermu": 0, "is_urbano": 0, "ORIG_FID": 158 }, "geometry": { "type": "Point", "coordinates": [ -74.077415281394124, 4.658648976706886 ] } },
{ "type": "Feature", "properties": { "id": 363.0, "ntrnombre": "PATIO CIPRES", "is_intermu": 0, "is_urbano": 0, "ORIG_FID": 159 }, "geometry": { "type": "Point", "coordinates": [ -74.045124120245788, 4.797262780434302 ] } },
{ "type": "Feature", "properties": { "id": 160.0, "ntrnombre": "SAN MATEO", "is_intermu": 0, "is_urbano": 0, "ORIG_FID": 160 }, "geometry": { "type": "Point", "coordinates": [ -74.204221467324572, 4.586558945086018 ] } },
{ "type": "Feature", "properties": { "id": 143.0, "ntrnombre": "AV CHILE", "is_intermu": 0, "is_urbano": 0, "ORIG_FID": 161 }, "geometry": { "type": "Point", "coordinates": [ -74.074658076232325, 4.666253883198412 ] } },
{ "type": "Feature", "properties": { "id": 144.0, "ntrnombre": "LA CASTELLANA", "is_intermu": 0, "is_urbano": 0, "ORIG_FID": 162 }, "geometry": { "type": "Point", "coordinates": [ -74.064468338764073, 4.675628733462209 ] } },
{ "type": "Feature", "properties": { "id": 146.0, "ntrnombre": "AV. ROJAS", "is_intermu": 0, "is_urbano": 0, "ORIG_FID": 163 }, "geometry": { "type": "Point", "coordinates": [ -74.108777931989763, 4.661972023788248 ] } },
{ "type": "Feature", "properties": { "id": 151.0, "ntrnombre": "PARQUE", "is_intermu": 0, "is_urbano": 0, "ORIG_FID": 164 }, "geometry": { "type": "Point", "coordinates": [ -74.135131415287532, 4.568453108906204 ] } },
{ "type": "Feature", "properties": { "id": 152.0, "ntrnombre": "BIBLIOTECA", "is_intermu": 0, "is_urbano": 0, "ORIG_FID": 165 }, "geometry": { "type": "Point", "coordinates": [ -74.130943471820785, 4.570113473413439 ] } },
{ "type": "Feature", "properties": { "id": 147.0, "ntrnombre": "RICAURTE", "is_intermu": 0, "is_urbano": 0, "ORIG_FID": 166 }, "geometry": { "type": "Point", "coordinates": [ -74.09060584884962, 4.612986043354899 ] } },
{ "type": "Feature", "properties": { "id": 149.0, "ntrnombre": "TRANSVERSAL 86", "is_intermu": 0, "is_urbano": 0, "ORIG_FID": 167 }, "geometry": { "type": "Point", "coordinates": [ -74.152248563410836, 4.634414694320968 ] } },
{ "type": "Feature", "properties": { "id": 155.0, "ntrnombre": "TYGUA", "is_intermu": 0, "is_urbano": 0, "ORIG_FID": 168 }, "geometry": { "type": "Point", "coordinates": [ -74.088739677783906, 4.599791174258431 ] } },
{ "type": "Feature", "properties": { "id": 156.0, "ntrnombre": "GUATOQUE", "is_intermu": 0, "is_urbano": 0, "ORIG_FID": 169 }, "geometry": { "type": "Point", "coordinates": [ -74.094718970702175, 4.604051908164456 ] } },
{ "type": "Feature", "properties": { "id": 74.0, "ntrnombre": "LAS AGUAS", "is_intermu": 0, "is_urbano": 0, "ORIG_FID": 170 }, "geometry": { "type": "Point", "coordinates": [ -74.068332569136331, 4.601926937133884 ] } },
{ "type": "Feature", "properties": { "id": 118.0, "ntrnombre": "MUSEO DEL ORO", "is_intermu": 0, "is_urbano": 0, "ORIG_FID": 171 }, "geometry": { "type": "Point", "coordinates": [ -74.073044342967989, 4.60125566394762 ] } },
{ "type": "Feature", "properties": { "id": 161.0, "ntrnombre": "TERREROS", "is_intermu": 0, "is_urbano": 0, "ORIG_FID": 172 }, "geometry": { "type": "Point", "coordinates": [ -74.200499399090617, 4.588485526045146 ] } },
{ "type": "Feature", "properties": { "id": 154.0, "ntrnombre": "SUBA AV BOYACA", "is_intermu": 0, "is_urbano": 0, "ORIG_FID": 173 }, "geometry": { "type": "Point", "coordinates": [ -74.074732921527769, 4.721369676254861 ] } },
{ "type": "Feature", "properties": { "id": 40.0, "ntrnombre": "COUNTRY SUR", "is_intermu": 0, "is_urbano": 0, "ORIG_FID": 174 }, "geometry": { "type": "Point", "coordinates": [ -74.098789874556559, 4.57121174616131 ] } },
{ "type": "Feature", "properties": { "id": 5.0, "ntrnombre": "PATIO BONITO", "is_intermu": 0, "is_urbano": 0, "ORIG_FID": 175 }, "geometry": { "type": "Point", "coordinates": [ -74.1646946550335, 4.633102272229419 ] } },
{ "type": "Feature", "properties": { "id": 77.0, "ntrnombre": "CALLE 161", "is_intermu": 0, "is_urbano": 0, "ORIG_FID": 176 }, "geometry": { "type": "Point", "coordinates": [ -74.047991241372827, 4.741941830829424 ] } },
{ "type": "Feature", "properties": { "id": 138.0, "ntrnombre": "ALCALA", "is_intermu": 0, "is_urbano": 0, "ORIG_FID": 177 }, "geometry": { "type": "Point", "coordinates": [ -74.051470494620204, 4.721095996528884 ] } },
{ "type": "Feature", "properties": { "id": 139.0, "ntrnombre": "CALLE 142", "is_intermu": 0, "is_urbano": 0, "ORIG_FID": 178 }, "geometry": { "type": "Point", "coordinates": [ -74.050512817632196, 4.726862050959717 ] } },
{ "type": "Feature", "properties": { "id": 137.0, "ntrnombre": "HEROES", "is_intermu": 0, "is_urbano": 0, "ORIG_FID": 179 }, "geometry": { "type": "Point", "coordinates": [ -74.060329428558873, 4.66810373338275 ] } },
{ "type": "Feature", "properties": { "id": 29.0, "ntrnombre": "PORTAL DE USME", "is_intermu": 0, "is_urbano": 0, "ORIG_FID": 180 }, "geometry": { "type": "Point", "coordinates": [ -74.119211423253873, 4.531722174361799 ] } },
{ "type": "Feature", "properties": { "id": 53.0, "ntrnombre": "FLORES", "is_intermu": 0, "is_urbano": 0, "ORIG_FID": 181 }, "geometry": { "type": "Point", "coordinates": [ -74.063071301528566, 4.654836761010766 ] } },
{ "type": "Feature", "properties": { "id": 66.0, "ntrnombre": "TERCER MILENIO", "is_intermu": 0, "is_urbano": 0, "ORIG_FID": 182 }, "geometry": { "type": "Point", "coordinates": [ -74.083856352015047, 4.59811288961336 ] } },
{ "type": "Feature", "properties": { "id": 340.0, "ntrnombre": "CL76 - Autonorte", "is_intermu": 0, "is_urbano": 0, "ORIG_FID": 183 }, "geometry": { "type": "Point", "coordinates": [ -74.060884342148498, 4.663990234640459 ] } },
{ "type": "Feature", "properties": { "id": 343.0, "ntrnombre": "CL80 - 20B OREJA", "is_intermu": 0, "is_urbano": 0, "ORIG_FID": 184 }, "geometry": { "type": "Point", "coordinates": [ -74.061217011675268, 4.665808532338487 ] } },
{ "type": "Feature", "properties": { "id": 95.0, "ntrnombre": "LAS NIEVES", "is_intermu": 0, "is_urbano": 0, "ORIG_FID": 185 }, "geometry": { "type": "Point", "coordinates": [ -74.074358461028311, 4.606006659717381 ] } },
{ "type": "Feature", "properties": { "id": 128.0, "ntrnombre": "AV JIMENEZ", "is_intermu": 0, "is_urbano": 0, "ORIG_FID": 186 }, "geometry": { "type": "Point", "coordinates": [ -74.080523237369917, 4.602743138446421 ] } },
{ "type": "Feature", "properties": { "id": 129.0, "ntrnombre": "CALLE 19", "is_intermu": 0, "is_urbano": 0, "ORIG_FID": 187 }, "geometry": { "type": "Point", "coordinates": [ -74.07691744326408, 4.607788171442249 ] } },
{ "type": "Feature", "properties": { "id": 145.0, "ntrnombre": "GRANJA - CARRERA 77", "is_intermu": 0, "is_urbano": 0, "ORIG_FID": 188 }, "geometry": { "type": "Point", "coordinates": [ -74.095812825286615, 4.699072316264442 ] } },
{ "type": "Feature", "properties": { "id": 130.0, "ntrnombre": "CALLE 22", "is_intermu": 0, "is_urbano": 0, "ORIG_FID": 189 }, "geometry": { "type": "Point", "coordinates": [ -74.074699637778153, 4.611672879931813 ] } },
{ "type": "Feature", "properties": { "id": 131.0, "ntrnombre": "CALLE 26", "is_intermu": 0, "is_urbano": 0, "ORIG_FID": 190 }, "geometry": { "type": "Point", "coordinates": [ -74.072178378201755, 4.6165980609236 ] } },
{ "type": "Feature", "properties": { "id": 132.0, "ntrnombre": "AV 39", "is_intermu": 0, "is_urbano": 0, "ORIG_FID": 191 }, "geometry": { "type": "Point", "coordinates": [ -74.068716602599721, 4.626786392734465 ] } },
{ "type": "Feature", "properties": { "id": 133.0, "ntrnombre": "CALLE 45", "is_intermu": 0, "is_urbano": 0, "ORIG_FID": 192 }, "geometry": { "type": "Point", "coordinates": [ -74.067879706313846, 4.631424269013447 ] } },
{ "type": "Feature", "properties": { "id": 78.0, "ntrnombre": "MANDALAY", "is_intermu": 0, "is_urbano": 0, "ORIG_FID": 193 }, "geometry": { "type": "Point", "coordinates": [ -74.141355312521327, 4.630854689792276 ] } },
{ "type": "Feature", "properties": { "id": 134.0, "ntrnombre": "MARLY", "is_intermu": 0, "is_urbano": 0, "ORIG_FID": 194 }, "geometry": { "type": "Point", "coordinates": [ -74.066792024525739, 4.637445578952501 ] } },
{ "type": "Feature", "properties": { "id": 136.0, "ntrnombre": "CALLE 63", "is_intermu": 0, "is_urbano": 0, "ORIG_FID": 195 }, "geometry": { "type": "Point", "coordinates": [ -74.064884940834162, 4.648301554598996 ] } },
{ "type": "Feature", "properties": { "id": 47.0, "ntrnombre": "SANTA LUCIA", "is_intermu": 0, "is_urbano": 0, "ORIG_FID": 196 }, "geometry": { "type": "Point", "coordinates": [ -74.124724952358605, 4.570899673724365 ] } },
{ "type": "Feature", "properties": { "id": 153.0, "ntrnombre": "MUSEO NACIONAL", "is_intermu": 0, "is_urbano": 0, "ORIG_FID": 197 }, "geometry": { "type": "Point", "coordinates": [ -74.069279205630721, 4.615055965821099 ] } },
{ "type": "Feature", "properties": { "id": 51.0, "ntrnombre": "BANDERAS", "is_intermu": 0, "is_urbano": 0, "ORIG_FID": 198 }, "geometry": { "type": "Point", "coordinates": [ -74.146395607362734, 4.631286094444968 ] } },
{ "type": "Feature", "properties": { "id": 79.0, "ntrnombre": "MARSELLA", "is_intermu": 0, "is_urbano": 0, "ORIG_FID": 199 }, "geometry": { "type": "Point", "coordinates": [ -74.130205847620957, 4.629689685738195 ] } },
{ "type": "Feature", "properties": { "id": 75.0, "ntrnombre": "PORTAL DEL SUR", "is_intermu": 0, "is_urbano": 0, "ORIG_FID": 200 }, "geometry": { "type": "Point", "coordinates": [ -74.169336954437711, 4.597072011751655 ] } },
{ "type": "Feature", "properties": { "id": 80.0, "ntrnombre": "PORTAL EL DORADO", "is_intermu": 0, "is_urbano": 0, "ORIG_FID": 201 }, "geometry": { "type": "Point", "coordinates": [ -74.121382999852628, 4.68156890295292 ] } },
{ "type": "Feature", "properties": { "id": 119.0, "ntrnombre": "CORABASTOS CENTRAL DE ABASTOS", "is_intermu": 0, "is_urbano": 0, "ORIG_FID": 202 }, "geometry": { "type": "Point", "coordinates": [ -74.159281812320259, 4.630849356262031 ] } },
{ "type": "Feature", "properties": { "id": 28.0, "ntrnombre": "PORTAL DE LA 80", "is_intermu": 0, "is_urbano": 0, "ORIG_FID": 203 }, "geometry": { "type": "Point", "coordinates": [ -74.110363098393535, 4.709659988020683 ] } },
{ "type": "Feature", "properties": { "id": 30.0, "ntrnombre": "PORTAL AMERICAS", "is_intermu": 0, "is_urbano": 0, "ORIG_FID": 204 }, "geometry": { "type": "Point", "coordinates": [ -74.173435527545706, 4.629449560229216 ] } },
{ "type": "Feature", "properties": { "id": 117.0, "ntrnombre": "PORTAL DE SUBA", "is_intermu": 0, "is_urbano": 0, "ORIG_FID": 205 }, "geometry": { "type": "Point", "coordinates": [ -74.094503493339246, 4.746871208405165 ] } },
{ "type": "Feature", "properties": { "id": 81.0, "ntrnombre": "PORTAL 20 DE JULIO", "is_intermu": 0, "is_urbano": 0, "ORIG_FID": 206 }, "geometry": { "type": "Point", "coordinates": [ -74.09701849007017, 4.565779446189373 ] } },
{ "type": "Feature", "properties": { "id": 150.0, "ntrnombre": "PORTAL DEL TUNAL", "is_intermu": 0, "is_urbano": 0, "ORIG_FID": 207 }, "geometry": { "type": "Point", "coordinates": [ -74.139540817148955, 4.569339187030926 ] } },
{ "type": "Feature", "properties": { "id": 55.0, "ntrnombre": "GENERAL SANTANDER", "is_intermu": 0, "is_urbano": 0, "ORIG_FID": 208 }, "geometry": { "type": "Point", "coordinates": [ -74.129630279441017, 4.593574588818369 ] } },
{ "type": "Feature", "properties": { "id": 126.0, "ntrnombre": "CALLE 40 SUR", "is_intermu": 0, "is_urbano": 0, "ORIG_FID": 209 }, "geometry": { "type": "Point", "coordinates": [ -74.120089839050692, 4.575785746205087 ] } },
{ "type": "Feature", "properties": { "id": 85.0, "ntrnombre": "MOLINOS", "is_intermu": 0, "is_urbano": 0, "ORIG_FID": 210 }, "geometry": { "type": "Point", "coordinates": [ -74.121830665697431, 4.556914267799112 ] } },
{ "type": "Feature", "properties": { "id": 148.0, "ntrnombre": "DISTRITO GRAFITI", "is_intermu": 0, "is_urbano": 0, "ORIG_FID": 211 }, "geometry": { "type": "Point", "coordinates": [ -74.111311101225539, 4.627837012876274 ] } },
{ "type": "Feature", "properties": { "id": 21.0, "ntrnombre": "CALLE 146", "is_intermu": 0, "is_urbano": 0, "ORIG_FID": 212 }, "geometry": { "type": "Point", "coordinates": [ -74.049854426154482, 4.730708557851964 ] } },
{ "type": "Feature", "properties": { "id": 141.0, "ntrnombre": "TERMINAL DEL NORTE", "is_intermu": 0, "is_urbano": 0, "ORIG_FID": 213 }, "geometry": { "type": "Point", "coordinates": [ -74.043535981074101, 4.769674654405552 ] } },
{ "type": "Feature", "properties": { "id": 26.0, "ntrnombre": "TOBERIN", "is_intermu": 0, "is_urbano": 0, "ORIG_FID": 214 }, "geometry": { "type": "Point", "coordinates": [ -74.047239579746446, 4.746530062505133 ] } },
{ "type": "Feature", "properties": { "id": 89.0, "ntrnombre": "CALLE 85", "is_intermu": 0, "is_urbano": 0, "ORIG_FID": 215 }, "geometry": { "type": "Point", "coordinates": [ -74.059693266173639, 4.672345737479024 ] } },
{ "type": "Feature", "properties": { "id": 63.0, "ntrnombre": "MAZUREN", "is_intermu": 0, "is_urbano": 0, "ORIG_FID": 216 }, "geometry": { "type": "Point", "coordinates": [ -74.049225748661186, 4.734549577755885 ] } },
{ "type": "Feature", "properties": { "id": 140.0, "ntrnombre": "TERMINAL", "is_intermu": 0, "is_urbano": 0, "ORIG_FID": 217 }, "geometry": { "type": "Point", "coordinates": [ -74.043493563037558, 4.769188754707582 ] } },
{ "type": "Feature", "properties": { "id": 31.0, "ntrnombre": "PORTAL DEL NORTE", "is_intermu": 0, "is_urbano": 0, "ORIG_FID": 218 }, "geometry": { "type": "Point", "coordinates": [ -74.046035803183045, 4.754633857203101 ] } },
{ "type": "Feature", "properties": { "id": 364.0, "ntrnombre": "PATIO BACHUE", "is_intermu": 0, "is_urbano": 0, "ORIG_FID": 219 }, "geometry": { "type": "Point", "coordinates": [ -74.109247171404718, 4.709121484216115 ] } },
{ "type": "Feature", "properties": { "id": 365.0, "ntrnombre": "FLORES", "is_intermu": 0, "is_urbano": 0, "ORIG_FID": 220 }, "geometry": { "type": "Point", "coordinates": [ -74.062861222387397, 4.654317546685681 ] } },
{ "type": "Feature", "properties": { "id": 366.0, "ntrnombre": "PATIO LAGUNA", "is_intermu": 0, "is_urbano": 0, "ORIG_FID": 221 }, "geometry": { "type": "Point", "coordinates": [ -74.146857201135731, 4.579693861211152 ] } }
]
}
